PCBNEW-LibModule-V1  
# encoding utf-8
Units mm
$INDEX
DIP6
$EndINDEX
$MODULE DIP6
Po 0 0 0 15 00000000 00000000 ~~
Li DIP6
Cd 
Sc 00000000
At STD
Op 0 0 0
.SolderMask 0.1
.SolderPaste 0
T0 3.175 7.62 1 1 0 0.05 N V 21 "DIP6"
T1 0 0 1 0.9 0 0.05 N H 21 "VAL**"
DS 1.27 6.35 1.27 0 0.127 21
DS 1.27 0 1.27 -1.27 0.127 21
DS 1.27 -1.27 2.54 -1.27 0.127 21
DS 2.54 -1.27 6.35 -1.27 0.127 21
DS 6.35 -1.27 6.35 6.35 0.127 21
DS 6.35 6.35 1.27 6.35 0.127 21
DS 1.27 0 2.54 -1.27 0.127 21
$PAD
Sh "P$1" C 1.308 1.308 0 0 0
Dr 0.8 0 0
At STD N 00E0FFFF
.SolderMask 0.2
Ne 0 ""
Po 0 0
$EndPAD
$PAD
Sh "P$2" C 1.308 1.308 0 0 0
Dr 0.8 0 0
At STD N 00E0FFFF
.SolderMask 0.2
Ne 0 ""
Po 0 2.54
$EndPAD
$PAD
Sh "P$3" C 1.308 1.308 0 0 0
Dr 0.8 0 0
At STD N 00E0FFFF
.SolderMask 0.2
Ne 0 ""
Po 0 5.08
$EndPAD
$PAD
Sh "P$4" C 1.308 1.308 0 0 0
Dr 0.8 0 0
At STD N 00E0FFFF
.SolderMask 0.2
Ne 0 ""
Po 7.62 5.08
$EndPAD
$PAD
Sh "P$5" C 1.308 1.308 0 0 0
Dr 0.8 0 0
At STD N 00E0FFFF
.SolderMask 0.2
Ne 0 ""
Po 7.62 2.54
$EndPAD
$PAD
Sh "P$6" C 1.308 1.308 0 0 0
Dr 0.8 0 0
At STD N 00E0FFFF
.SolderMask 0.2
Ne 0 ""
Po 7.62 0
$EndPAD
$EndMODULE DIP6
