PCBNEW-LibModule-V1  
# encoding utf-8
Units mm
$INDEX
SSOP5
$EndINDEX
$MODULE SSOP5
Po 0 0 0 15 00000000 00000000 ~~
Li SSOP5
Cd 
Sc 00000000
At SMD
Op 0 0 0
.SolderMask 0.1
.SolderPaste 0
T0 -0.0127 -2.3622 0.32 0.32 0 0.05 N V 21 "SSOP5"
T1 0.0635 -0.0127 0.32 0.32 0 0.05 N V 21 "VAL**"
DS 1.4224 -0.8104 1.4224 0.8104 0.2032 21
DS -1.4224 0.8104 -1.4224 -0.8104 0.2032 21
DS -1.3276 0.8104 -1.4224 0.8104 0.2032 21
DS 1.4224 0.8104 1.3276 0.8104 0.2032 21
DS 1.3276 -0.8104 1.4224 -0.8104 0.2032 21
DS -1.4224 -0.8104 -1.3276 -0.8104 0.2032 21
DC -1.0922 0.37465 -1.0563 0.37465 0.254 21
$PAD
Sh "1" R 0.55 1.2 0 0 0
At SMD N 00888000
.SolderMask 0.2
.SolderPaste 0
Ne 0 ""
Po -0.95 1.3001
$EndPAD
$PAD
Sh "2" R 0.55 1.2 0 0 0
At SMD N 00888000
.SolderMask 0.2
.SolderPaste 0
Ne 0 ""
Po 0 1.3001
$EndPAD
$PAD
Sh "3" R 0.55 1.2 0 0 0
At SMD N 00888000
.SolderMask 0.2
.SolderPaste 0
Ne 0 ""
Po 0.95 1.3001
$EndPAD
$PAD
Sh "4" R 0.55 1.2 0 0 0
At SMD N 00888000
.SolderMask 0.2
.SolderPaste 0
Ne 0 ""
Po 0.95 -1.3001
$EndPAD
$PAD
Sh "5" R 0.55 1.2 0 0 0
At SMD N 00888000
.SolderMask 0.2
.SolderPaste 0
Ne 0 ""
Po -0.95 -1.3001
$EndPAD
$EndMODULE SSOP5
